%YAML 1.1
%TAG !u! tag:unity3d.com,2011:
--- !u!1045 &1
EditorBuildSettings:
  m_ObjectHideFlags: 0
  serializedVersion: 2
  m_Scenes:
  - enabled: 1
    path: Assets/Scenes/Menu.unity
    guid: c81c9307a361d7941be7943fdb85cd29
  - enabled: 1
    path: Assets/Scenes/Dream.unity
    guid: a17207fd49f47cc468c8d093dc3b063f
  - enabled: 1
    path: Assets/Scenes/Level1.unity
    guid: a8526a96a64487143a334b273d678572
  - enabled: 1
    path: Assets/Scenes/Ending.unity
    guid: 5e82f31631c4ef3458c5d046a4ba43ab
  - enabled: 1
    path: Assets/Scenes/Credits.unity
    guid: 0ab7639b7aee70e40948512439f203c2
  m_configObjects: {}
